%YAML 1.1
%TAG !u! tag:unity3d.com,2011:
--- !u!78 &1
TagManager:
  serializedVersion: 2
  tags:
  - Enemy
  - ShotAttack
  - SlashAttack
  - Attack
  layers:
  - Default
  - TransparentFX
  - Ignore Raycast
  - 
  - Water
  - UI
  - 
  - 
  - BackObject
  - Player
  - Enemy
  - 
  - 
  - 
  - 
  - 
  - 
  - 
  - 
  - 
  - 
  - 
  - 
  - 
  - 
  - 
  - 
  - 
  - 
  - 
  - 
  - 
  m_SortingLayers:
  - name: BackGround
    uniqueID: 2063339757
    locked: 0
  - name: BackItem
    uniqueID: 3418018883
    locked: 0
  - name: Default
    uniqueID: 0
    locked: 0
  - name: Character
    uniqueID: 1216098217
    locked: 0
  - name: Front
    uniqueID: 2074804325
    locked: 0
  - name: Technique
    uniqueID: 3641470763
    locked: 0
